4,0,3,30,5,90,10,15,0,,,,,
0,1,1,1,1,1,1,1,1,1,1,1,0
0,0,0,1,2,1,2,1,0,0,0,0,0
0,0,0,0,1,2,1,1,0,0,0,0,0
0,0,0,0,1,1,1,0,0,0,0,0,0
0,0,0,0,0,1,1,0,0,0,0,0,0
0,0,0,0,0,1,0,0,0,0,0,0,0
0,0,0,0,0,0,0,0,0,0,0,0,0