﻿海浪|浪花:浪費|放浪
分開|分離:區分|分析
本領|本事:本身|本人
指揮|指導:指甲|手指
發表|發佈:發展|發揚
麻醉|麻木:麻袋|麻布
明白|明確:明亮|光明
信仰|信徒:信任|信心
報刊|報紙:報答|報復
開始|開端:開動|開車
正中|正午:正確|正義
除非|除外:排除|廢除
平等|等於:等待|等候
度過|度假:刻度|度數
快樂|快活:快餐|快速
法官|法庭:辦法|手法
粉塵|花粉:粉紅|粉色
戒備|戒心:戒除|戒烟
感謝|感恩:感動|情感
害怕|害羞:傷害|害人
游水|游動:旅游|游玩
人影|倒影:影片|電影
意思|意見:意外|意料
英雄|英才:英國|英文
禮物|禮金:禮貌|禮儀
難度|困難:難聽|難看
銀行|銀幣:銀白|銀河
拍戲|拍照:拍手|拍打

