﻿花圃|花園|花市|花木|花朵|花瓶:花紋|花樣
商店|商品:商量|商討
等待|等到:等於|相等
道理|道德:道歉|道謝
表示|表達:表面|外表
體育|體操:體諒|體貼
服飾|服裝:服從|信服
關心|關懷:關閉|關門
背景|背後:背誦|背書
華麗|華貴:華人|中華
節拍|節奏:節約|節制
經歷|經驗:經商|經營
名字|名單:名人|名牌
安全|安危:安置|安排
品嘗|品味:品德|人品
表妹|表弟:表達|表示
發佈|宣佈:佈置|佈景
清楚|清晰:清爽|清潔
青山|青菜:青年|青春
請求|請教:請客|邀請
